[gd_scene load_steps=4 format=2]

[ext_resource path="res://addons/nframework/assets/audio/button_002.wav" type="AudioStream" id=1]
[ext_resource path="res://addons/nframework/scenes/settings_menu/volume/volume_control.gd" type="Script" id=2]
[ext_resource path="res://addons/nframework/ui/menu_slider.tscn" type="PackedScene" id=3]

[node name="VolumeControl" type="MarginContainer"]
anchor_right = 1.0
margin_bottom = 16.0
script = ExtResource( 2 )

[node name="MenuSlider" parent="." instance=ExtResource( 3 )]
anchor_right = 0.0
margin_right = 320.0
max_value = 1.0
step = 0.05

[node name="AudioStreamPlayer" type="AudioStreamPlayer" parent="."]
stream = ExtResource( 1 )
