[gd_scene load_steps=2 format=2]

[ext_resource path="res://addons/nframework/ui/combo/slider_value.gd" type="Script" id=1]

[node name="SliderValue" type="HBoxContainer"]
margin_right = 380.0
margin_bottom = 24.0
size_flags_horizontal = 3
script = ExtResource( 1 )

[node name="Label" type="Label" parent="."]
margin_top = 5.0
margin_right = 71.0
margin_bottom = 19.0
text = "SliderValue"

[node name="HSlider" type="HSlider" parent="."]
margin_left = 75.0
margin_top = 4.0
margin_right = 302.0
margin_bottom = 20.0
size_flags_horizontal = 3
size_flags_vertical = 4
max_value = 10.0

[node name="SpinBox" type="SpinBox" parent="."]
margin_left = 306.0
margin_right = 380.0
margin_bottom = 24.0
max_value = 10.0

[connection signal="drag_ended" from="HSlider" to="." method="_on_HSlider_drag_ended"]
[connection signal="value_changed" from="HSlider" to="." method="_on_HSlider_value_changed"]
[connection signal="value_changed" from="SpinBox" to="." method="_on_SpinBox_value_changed"]
