[gd_scene format=2]

[node name="Shard" type="RigidBody2D"]
collision_layer = 32768
collision_mask = 32768
mode = 1

[node name="CollisionPolygon2D" type="CollisionPolygon2D" parent="."]
disabled = true

[node name="Polygon2D" type="Polygon2D" parent="."]

[node name="VisibilityNotifier2D" type="VisibilityNotifier2D" parent="."]
