[gd_resource type="AudioBusLayout" load_steps=3 format=2]

[sub_resource type="AudioEffectReverb" id=1]
resource_name = "Reverb"
room_size = 0.01
damping = 0.0

[sub_resource type="AudioEffectPanner" id=2]
resource_name = "Panner"

[resource]
bus/1/name = "Music"
bus/1/solo = false
bus/1/mute = false
bus/1/bypass_fx = false
bus/1/volume_db = 0.0672607
bus/1/send = "Master"
bus/2/name = "SFX"
bus/2/solo = false
bus/2/mute = false
bus/2/bypass_fx = false
bus/2/volume_db = 0.0
bus/2/send = "Master"
bus/2/effect/0/effect = SubResource( 1 )
bus/2/effect/0/enabled = false
bus/2/effect/1/effect = SubResource( 2 )
bus/2/effect/1/enabled = false
bus/3/name = "UI"
bus/3/solo = false
bus/3/mute = false
bus/3/bypass_fx = false
bus/3/volume_db = 0.0
bus/3/send = "Master"
bus/4/name = "Null"
bus/4/solo = false
bus/4/mute = true
bus/4/bypass_fx = false
bus/4/volume_db = -80.0
bus/4/send = "Master"
