[gd_scene load_steps=3 format=2]

[ext_resource path="res://addons/nframework/assets/themes/theme_lowres_tex.tres" type="Theme" id=1]
[ext_resource path="res://addons/nframework/scenes/instructions/controls_list/controls_list.gd" type="Script" id=2]

[node name="ControlsList" type="Control"]
theme = ExtResource( 1 )
script = ExtResource( 2 )

[node name="GridContainer" type="GridContainer" parent="."]
margin_right = 40.0
margin_bottom = 40.0
