[gd_resource type="Theme" load_steps=6 format=2]

[ext_resource path="res://addons/nframework/assets/fonts/abaddon/abaddon_16.tres" type="DynamicFont" id=1]
[ext_resource path="res://assets/button_base.tres" type="StyleBox" id=2]
[ext_resource path="res://assets/button_base_hover.tres" type="StyleBox" id=3]
[ext_resource path="res://assets/button_base_disabled.tres" type="StyleBox" id=4]
[ext_resource path="res://assets/button_base_pressed.tres" type="StyleBox" id=5]

[resource]
default_font = ExtResource( 1 )
Button/styles/disabled = ExtResource( 4 )
Button/styles/hover = ExtResource( 3 )
Button/styles/normal = ExtResource( 2 )
Button/styles/pressed = ExtResource( 5 )
