[gd_scene load_steps=2 format=2]

[ext_resource path="res://addons/nframework/ui/menu_slider.gd" type="Script" id=1]

[node name="MenuSlider" type="HBoxContainer"]
anchor_right = 1.0
margin_bottom = 16.0
size_flags_horizontal = 3
script = ExtResource( 1 )

[node name="Label" type="Label" parent="."]
margin_top = 1.0
margin_right = 72.0
margin_bottom = 15.0
rect_min_size = Vector2( 64, 0 )
text = "MenuSlider"

[node name="HSlider" type="HSlider" parent="."]
margin_left = 76.0
margin_right = 320.0
margin_bottom = 16.0
size_flags_horizontal = 3
size_flags_vertical = 4
value = 50.0
