[gd_scene load_steps=7 format=2]

[ext_resource path="res://addons/nframework/scenes/main_menu.gd" type="Script" id=1]
[ext_resource path="res://addons/nframework/assets/themes/theme_lowres_tex.tres" type="Theme" id=2]
[ext_resource path="res://addons/nframework/ui/combo/label_value.tscn" type="PackedScene" id=3]
[ext_resource path="res://addons/nframework/assets/fonts/abaddon/abaddon_bold_16.tres" type="DynamicFont" id=4]
[ext_resource path="res://assets/aseprite/tileset.tres" type="TileSet" id=5]

[sub_resource type="StyleBoxEmpty" id=1]

[node name="MainMenu" type="Control"]
anchor_right = 1.0
anchor_bottom = 1.0
theme = ExtResource( 2 )
script = ExtResource( 1 )

[node name="Control" type="Control" parent="."]
anchor_right = 1.0
anchor_bottom = 1.0

[node name="Panel" type="Panel" parent="Control"]
anchor_right = 1.0
anchor_bottom = 1.0

[node name="Title" type="Label" parent="Control"]
anchor_left = 0.5
anchor_right = 0.5
margin_left = -640.0
margin_top = 112.0
margin_right = 640.0
margin_bottom = 130.0
rect_scale = Vector2( 2, 2 )
rect_pivot_offset = Vector2( 640, 0 )
custom_fonts/font = ExtResource( 4 )
text = "Wheat Master"
align = 1
__meta__ = {
"_edit_use_anchors_": false
}

[node name="MenuOptions" type="VBoxContainer" parent="Control"]
unique_name_in_owner = true
anchor_left = 0.5
anchor_top = 0.5
anchor_right = 0.5
anchor_bottom = 0.5
margin_left = -66.9
margin_top = -90.5
margin_right = 66.9
margin_bottom = 90.5
size_flags_horizontal = 3
size_flags_vertical = 3
custom_constants/separation = 8
alignment = 1

[node name="NewGame" type="Button" parent="Control/MenuOptions"]
margin_top = 40.0
margin_right = 133.0
margin_bottom = 68.0
custom_styles/pressed = SubResource( 1 )
text = "new game"

[node name="Settings" type="Button" parent="Control/MenuOptions"]
margin_top = 76.0
margin_right = 133.0
margin_bottom = 104.0
text = "settings"

[node name="Credits" type="Button" parent="Control/MenuOptions"]
visible = false
margin_top = 267.0
margin_right = 984.0
margin_bottom = 287.0
text = "credits"

[node name="Help" type="Button" parent="Control/MenuOptions"]
visible = false
margin_top = 267.0
margin_right = 984.0
margin_bottom = 287.0
text = "credits"

[node name="Exit" type="Button" parent="Control/MenuOptions"]
margin_top = 112.0
margin_right = 133.0
margin_bottom = 140.0
text = "exit"

[node name="Credit" type="Label" parent="Control"]
anchor_top = 0.9
anchor_right = 1.0
anchor_bottom = 0.9
margin_top = -69.0
margin_bottom = -30.0
text = "a game by nyxkn
for ludum dare 52"
align = 1

[node name="BestScore" parent="Control" instance=ExtResource( 3 )]
unique_name_in_owner = true
anchor_left = 0.5
anchor_top = 0.5
anchor_right = 0.5
anchor_bottom = 0.5
margin_left = -96.5
margin_top = -177.0
margin_right = 80.5
margin_bottom = -159.0
label = "Your best score so far"
value = "0"
separator = ":"

[node name="Field" type="Node2D" parent="."]
position = Vector2( 300, 300 )
scale = Vector2( 4, 4 )

[node name="Terrains" type="Node2D" parent="Field"]

[node name="Terrain1" type="TileMap" parent="Field/Terrains"]
mode = 1
tile_set = ExtResource( 5 )
cell_size = Vector2( 32, 16 )
centered_textures = true
format = 1
tile_data = PoolIntArray( -65538, 1, 0, -65537, 1, 0, -2, 1, 0, -1, 1, 0, -65536, 1, 0, 65535, 1, 0, 0, 1, 0, 1, 1, 0, 65536, 1, 0, 65537, 1, 0, 65538, 1, 0, 131073, 1, 0 )

[node name="Terrain2" type="TileMap" parent="Field/Terrains"]
visible = false
mode = 1
tile_set = ExtResource( 5 )
cell_size = Vector2( 32, 16 )
centered_textures = true
format = 1
tile_data = PoolIntArray( -65537, 1, 0, -131072, 1, 0, -2, 1, 0, -1, 1, 0, -65536, 1, 0, -65535, 1, 0, 65534, 1, 0, 65535, 1, 0, 0, 1, 0, 1, 1, 0, 2, 1, 0, 131071, 1, 0, 65536, 1, 0, 65537, 1, 0, 65538, 1, 0, 131072, 1, 0, 131073, 1, 0 )

[node name="Terrain3" type="TileMap" parent="Field/Terrains"]
visible = false
mode = 1
tile_set = ExtResource( 5 )
cell_size = Vector2( 32, 16 )
centered_textures = true
format = 1
tile_data = PoolIntArray( -65538, 1, 0, -65537, 1, 0, -131072, 1, 0, -131071, 1, 0, -131070, 1, 0, -2, 1, 0, -1, 1, 0, -65536, 1, 0, -65535, 1, 0, -65534, 1, 0, 65534, 1, 0, 65535, 1, 0, 0, 1, 0, 1, 1, 0, 2, 1, 0, 131070, 1, 0, 131071, 1, 0, 65536, 1, 0, 65537, 1, 0, 65538, 1, 0, 196606, 1, 0, 196607, 1, 0, 131072, 1, 0, 131073, 1, 0, 131074, 1, 0 )

[node name="Terrain4" type="TileMap" parent="Field/Terrains"]
visible = false
mode = 1
tile_set = ExtResource( 5 )
cell_size = Vector2( 32, 16 )
centered_textures = true
format = 1
tile_data = PoolIntArray( -131074, 1, 0, -131073, 1, 0, -196608, 1, 0, -65539, 1, 0, -65538, 1, 0, -65537, 1, 0, -131072, 1, 0, -131071, 1, 0, -131070, 1, 0, -3, 1, 0, -2, 1, 0, -1, 1, 0, -65536, 1, 0, -65535, 1, 0, -65534, 1, 0, 65533, 1, 0, 65534, 1, 0, 65535, 1, 0, 0, 1, 0, 1, 1, 0, 2, 1, 0, 3, 1, 0, 131070, 1, 0, 131071, 1, 0, 65536, 1, 0, 65537, 1, 0, 65538, 1, 0, 65539, 1, 0, 196606, 1, 0, 196607, 1, 0, 131072, 1, 0, 131073, 1, 0, 131074, 1, 0, 131075, 1, 0, 196608, 1, 0, 196609, 1, 0, 196610, 1, 0 )

[node name="Terrain5" type="TileMap" parent="Field/Terrains"]
visible = false
mode = 1
tile_set = ExtResource( 5 )
cell_size = Vector2( 32, 16 )
centered_textures = true
format = 1
tile_data = PoolIntArray( -196610, 1, 0, -196609, 1, 0, -262144, 1, 0, -131075, 1, 0, -131074, 1, 0, -131073, 1, 0, -196608, 1, 0, -196607, 1, 0, -65540, 1, 0, -65539, 1, 0, -65538, 1, 0, -65537, 1, 0, -131072, 1, 0, -131071, 1, 0, -131070, 1, 0, -4, 1, 0, -3, 1, 0, -2, 1, 0, -1, 1, 0, -65536, 1, 0, -65535, 1, 0, -65534, 1, 0, -65533, 1, 0, 65532, 1, 0, 65533, 1, 0, 65534, 1, 0, 65535, 1, 0, 0, 1, 0, 1, 1, 0, 2, 1, 0, 3, 1, 0, 4, 1, 0, 131069, 1, 0, 131070, 1, 0, 131071, 1, 0, 65536, 1, 0, 65537, 1, 0, 65538, 1, 0, 65539, 1, 0, 65540, 1, 0, 196606, 1, 0, 196607, 1, 0, 131072, 1, 0, 131073, 1, 0, 131074, 1, 0, 131075, 1, 0, 131076, 1, 0, 262143, 1, 0, 196608, 1, 0, 196609, 1, 0, 196610, 1, 0, 196611, 1, 0, 262144, 1, 0, 262145, 1, 0, 262146, 1, 0 )

[node name="Terrain6" type="TileMap" parent="Field/Terrains"]
visible = false
mode = 1
tile_set = ExtResource( 5 )
cell_size = Vector2( 32, 16 )
centered_textures = true
format = 1
tile_data = PoolIntArray( -196611, 1, 0, -196610, 1, 0, -196609, 1, 0, -262144, 1, 0, -262143, 1, 0, -131076, 1, 0, -131075, 1, 0, -131074, 1, 0, -131073, 1, 0, -196608, 1, 0, -196607, 1, 0, -196606, 1, 0, -196605, 1, 0, -65540, 1, 0, -65539, 1, 0, -65538, 1, 0, -65537, 1, 0, -131072, 1, 0, -131071, 1, 0, -131070, 1, 0, -131069, 1, 0, -4, 1, 0, -3, 1, 0, -2, 1, 0, -1, 1, 0, -65536, 1, 0, -65535, 1, 0, -65534, 1, 0, -65533, 1, 0, -65532, 1, 0, 65532, 1, 0, 65533, 1, 0, 65534, 1, 0, 65535, 1, 0, 0, 1, 0, 1, 1, 0, 2, 1, 0, 3, 1, 0, 4, 1, 0, 131068, 1, 0, 131069, 1, 0, 131070, 1, 0, 131071, 1, 0, 65536, 1, 0, 65537, 1, 0, 65538, 1, 0, 65539, 1, 0, 65540, 1, 0, 196605, 1, 0, 196606, 1, 0, 196607, 1, 0, 131072, 1, 0, 131073, 1, 0, 131074, 1, 0, 131075, 1, 0, 131076, 1, 0, 262141, 1, 0, 262142, 1, 0, 262143, 1, 0, 196608, 1, 0, 196609, 1, 0, 196610, 1, 0, 196611, 1, 0, 196612, 1, 0, 327679, 1, 0, 262144, 1, 0, 262145, 1, 0, 262146, 1, 0, 262147, 1, 0 )

[node name="Terrain7" type="TileMap" parent="Field/Terrains"]
visible = false
mode = 1
tile_set = ExtResource( 5 )
cell_size = Vector2( 32, 16 )
centered_textures = true
format = 1
tile_data = PoolIntArray( -262147, 1, 0, -262146, 1, 0, -262145, 1, 0, -327680, 1, 0, -327679, 1, 0, -196612, 1, 0, -196611, 1, 0, -196610, 1, 0, -196609, 1, 0, -262144, 1, 0, -262143, 1, 0, -262142, 1, 0, -131077, 1, 0, -131076, 1, 0, -131075, 1, 0, -131074, 1, 0, -131073, 1, 0, -196608, 1, 0, -196607, 1, 0, -196606, 1, 0, -196605, 1, 0, -65541, 1, 0, -65540, 1, 0, -65539, 1, 0, -65538, 1, 0, -65537, 1, 0, -131072, 1, 0, -131071, 1, 0, -131070, 1, 0, -131069, 1, 0, -131068, 1, 0, -5, 1, 0, -4, 1, 0, -3, 1, 0, -2, 1, 0, -1, 1, 0, -65536, 1, 0, -65535, 1, 0, -65534, 1, 0, -65533, 1, 0, -65532, 1, 0, -65531, 1, 0, 65531, 1, 0, 65532, 1, 0, 65533, 1, 0, 65534, 1, 0, 65535, 1, 0, 0, 1, 0, 1, 1, 0, 2, 1, 0, 3, 1, 0, 4, 1, 0, 5, 1, 0, 131067, 1, 0, 131068, 1, 0, 131069, 1, 0, 131070, 1, 0, 131071, 1, 0, 65536, 1, 0, 65537, 1, 0, 65538, 1, 0, 65539, 1, 0, 65540, 1, 0, 65541, 1, 0, 196604, 1, 0, 196605, 1, 0, 196606, 1, 0, 196607, 1, 0, 131072, 1, 0, 131073, 1, 0, 131074, 1, 0, 131075, 1, 0, 131076, 1, 0, 131077, 1, 0, 262141, 1, 0, 262142, 1, 0, 262143, 1, 0, 196608, 1, 0, 196609, 1, 0, 196610, 1, 0, 196611, 1, 0, 196612, 1, 0, 196613, 1, 0, 327678, 1, 0, 327679, 1, 0, 262144, 1, 0, 262145, 1, 0, 262146, 1, 0, 262147, 1, 0, 262148, 1, 0, 393215, 1, 0, 327680, 1, 0, 327681, 1, 0, 327682, 1, 0, 327683, 1, 0 )

[node name="Terrain" type="TileMap" parent="Field"]
visible = false
mode = 1
tile_set = ExtResource( 5 )
cell_size = Vector2( 32, 16 )
centered_textures = true
format = 1
tile_data = PoolIntArray( -262147, 1, 0, -262146, 1, 0, -262145, 1, 0, -327680, 1, 0, -327679, 1, 0, -196612, 1, 0, -196611, 1, 0, -196610, 1, 0, -196609, 1, 0, -262144, 1, 0, -262143, 1, 0, -262142, 1, 0, -131077, 1, 0, -131076, 1, 0, -131075, 1, 0, -131074, 1, 0, -131073, 1, 0, -196608, 1, 0, -196607, 1, 0, -196606, 1, 0, -196605, 1, 0, -65541, 1, 0, -65540, 1, 0, -65539, 1, 0, -65538, 1, 0, -65537, 1, 0, -131072, 1, 0, -131071, 1, 0, -131070, 1, 0, -131069, 1, 0, -131068, 1, 0, -5, 1, 0, -4, 1, 0, -3, 1, 0, -2, 1, 0, -1, 1, 0, -65536, 1, 0, -65535, 1, 0, -65534, 1, 0, -65533, 1, 0, -65532, 1, 0, -65531, 1, 0, 65531, 1, 0, 65532, 1, 0, 65533, 1, 0, 65534, 1, 0, 65535, 1, 0, 0, 1, 0, 1, 1, 0, 2, 1, 0, 3, 1, 0, 4, 1, 0, 5, 1, 0, 131067, 1, 0, 131068, 1, 0, 131069, 1, 0, 131070, 1, 0, 131071, 1, 0, 65536, 1, 0, 65537, 1, 0, 65538, 1, 0, 65539, 1, 0, 65540, 1, 0, 65541, 1, 0, 196604, 1, 0, 196605, 1, 0, 196606, 1, 0, 196607, 1, 0, 131072, 1, 0, 131073, 1, 0, 131074, 1, 0, 131075, 1, 0, 131076, 1, 0, 131077, 1, 0, 262141, 1, 0, 262142, 1, 0, 262143, 1, 0, 196608, 1, 0, 196609, 1, 0, 196610, 1, 0, 196611, 1, 0, 196612, 1, 0, 196613, 1, 0, 327678, 1, 0, 327679, 1, 0, 262144, 1, 0, 262145, 1, 0, 262146, 1, 0, 262147, 1, 0, 262148, 1, 0, 393215, 1, 0, 327680, 1, 0, 327681, 1, 0, 327682, 1, 0, 327683, 1, 0 )

[node name="Highlight" type="TileMap" parent="Field"]
modulate = Color( 1, 1, 1, 0.784314 )
mode = 1
tile_set = ExtResource( 5 )
cell_size = Vector2( 32, 16 )
centered_textures = true
format = 1

[node name="Plants" type="TileMap" parent="Field"]
mode = 1
tile_set = ExtResource( 5 )
cell_size = Vector2( 32, 16 )
centered_textures = true
format = 1
tile_data = PoolIntArray( -65538, 2, 0, -65537, 2, 0, -2, 2, 0, -1, 5, 0, -65536, 5, 0, 65535, 5, 0, 0, 6, 0, 1, 6, 0, 65536, 6, 0, 65537, 7, 0, 65538, 7, 0, 131073, 7, 0, 131074, 1, 0 )

[node name="Field2" type="Node2D" parent="."]
position = Vector2( 980, 300 )
scale = Vector2( 4, 4 )

[node name="Terrains" type="Node2D" parent="Field2"]

[node name="Terrain1" type="TileMap" parent="Field2/Terrains"]
mode = 1
tile_set = ExtResource( 5 )
cell_size = Vector2( 32, 16 )
centered_textures = true
format = 1
tile_data = PoolIntArray( -65538, 1, 0, -65537, 1, 0, -2, 1, 0, -1, 1, 0, -65536, 1, 0, 65535, 1, 0, 0, 1, 0, 1, 1, 0, 65536, 1, 0, 65537, 1, 0, 65538, 1, 0, 131073, 1, 0, 131074, 1, 0 )

[node name="Terrain2" type="TileMap" parent="Field2/Terrains"]
visible = false
mode = 1
tile_set = ExtResource( 5 )
cell_size = Vector2( 32, 16 )
centered_textures = true
format = 1
tile_data = PoolIntArray( -65537, 1, 0, -131072, 1, 0, -2, 1, 0, -1, 1, 0, -65536, 1, 0, -65535, 1, 0, 65534, 1, 0, 65535, 1, 0, 0, 1, 0, 1, 1, 0, 2, 1, 0, 131071, 1, 0, 65536, 1, 0, 65537, 1, 0, 65538, 1, 0, 131072, 1, 0, 131073, 1, 0 )

[node name="Terrain3" type="TileMap" parent="Field2/Terrains"]
visible = false
mode = 1
tile_set = ExtResource( 5 )
cell_size = Vector2( 32, 16 )
centered_textures = true
format = 1
tile_data = PoolIntArray( -65538, 1, 0, -65537, 1, 0, -131072, 1, 0, -131071, 1, 0, -131070, 1, 0, -2, 1, 0, -1, 1, 0, -65536, 1, 0, -65535, 1, 0, -65534, 1, 0, 65534, 1, 0, 65535, 1, 0, 0, 1, 0, 1, 1, 0, 2, 1, 0, 131070, 1, 0, 131071, 1, 0, 65536, 1, 0, 65537, 1, 0, 65538, 1, 0, 196606, 1, 0, 196607, 1, 0, 131072, 1, 0, 131073, 1, 0, 131074, 1, 0 )

[node name="Terrain4" type="TileMap" parent="Field2/Terrains"]
visible = false
mode = 1
tile_set = ExtResource( 5 )
cell_size = Vector2( 32, 16 )
centered_textures = true
format = 1
tile_data = PoolIntArray( -131074, 1, 0, -131073, 1, 0, -196608, 1, 0, -65539, 1, 0, -65538, 1, 0, -65537, 1, 0, -131072, 1, 0, -131071, 1, 0, -131070, 1, 0, -3, 1, 0, -2, 1, 0, -1, 1, 0, -65536, 1, 0, -65535, 1, 0, -65534, 1, 0, 65533, 1, 0, 65534, 1, 0, 65535, 1, 0, 0, 1, 0, 1, 1, 0, 2, 1, 0, 3, 1, 0, 131070, 1, 0, 131071, 1, 0, 65536, 1, 0, 65537, 1, 0, 65538, 1, 0, 65539, 1, 0, 196606, 1, 0, 196607, 1, 0, 131072, 1, 0, 131073, 1, 0, 131074, 1, 0, 131075, 1, 0, 196608, 1, 0, 196609, 1, 0, 196610, 1, 0 )

[node name="Terrain5" type="TileMap" parent="Field2/Terrains"]
visible = false
mode = 1
tile_set = ExtResource( 5 )
cell_size = Vector2( 32, 16 )
centered_textures = true
format = 1
tile_data = PoolIntArray( -196610, 1, 0, -196609, 1, 0, -262144, 1, 0, -131075, 1, 0, -131074, 1, 0, -131073, 1, 0, -196608, 1, 0, -196607, 1, 0, -65540, 1, 0, -65539, 1, 0, -65538, 1, 0, -65537, 1, 0, -131072, 1, 0, -131071, 1, 0, -131070, 1, 0, -4, 1, 0, -3, 1, 0, -2, 1, 0, -1, 1, 0, -65536, 1, 0, -65535, 1, 0, -65534, 1, 0, -65533, 1, 0, 65532, 1, 0, 65533, 1, 0, 65534, 1, 0, 65535, 1, 0, 0, 1, 0, 1, 1, 0, 2, 1, 0, 3, 1, 0, 4, 1, 0, 131069, 1, 0, 131070, 1, 0, 131071, 1, 0, 65536, 1, 0, 65537, 1, 0, 65538, 1, 0, 65539, 1, 0, 65540, 1, 0, 196606, 1, 0, 196607, 1, 0, 131072, 1, 0, 131073, 1, 0, 131074, 1, 0, 131075, 1, 0, 131076, 1, 0, 262143, 1, 0, 196608, 1, 0, 196609, 1, 0, 196610, 1, 0, 196611, 1, 0, 262144, 1, 0, 262145, 1, 0, 262146, 1, 0 )

[node name="Terrain6" type="TileMap" parent="Field2/Terrains"]
visible = false
mode = 1
tile_set = ExtResource( 5 )
cell_size = Vector2( 32, 16 )
centered_textures = true
format = 1
tile_data = PoolIntArray( -196611, 1, 0, -196610, 1, 0, -196609, 1, 0, -262144, 1, 0, -262143, 1, 0, -131076, 1, 0, -131075, 1, 0, -131074, 1, 0, -131073, 1, 0, -196608, 1, 0, -196607, 1, 0, -196606, 1, 0, -196605, 1, 0, -65540, 1, 0, -65539, 1, 0, -65538, 1, 0, -65537, 1, 0, -131072, 1, 0, -131071, 1, 0, -131070, 1, 0, -131069, 1, 0, -4, 1, 0, -3, 1, 0, -2, 1, 0, -1, 1, 0, -65536, 1, 0, -65535, 1, 0, -65534, 1, 0, -65533, 1, 0, -65532, 1, 0, 65532, 1, 0, 65533, 1, 0, 65534, 1, 0, 65535, 1, 0, 0, 1, 0, 1, 1, 0, 2, 1, 0, 3, 1, 0, 4, 1, 0, 131068, 1, 0, 131069, 1, 0, 131070, 1, 0, 131071, 1, 0, 65536, 1, 0, 65537, 1, 0, 65538, 1, 0, 65539, 1, 0, 65540, 1, 0, 196605, 1, 0, 196606, 1, 0, 196607, 1, 0, 131072, 1, 0, 131073, 1, 0, 131074, 1, 0, 131075, 1, 0, 131076, 1, 0, 262141, 1, 0, 262142, 1, 0, 262143, 1, 0, 196608, 1, 0, 196609, 1, 0, 196610, 1, 0, 196611, 1, 0, 196612, 1, 0, 327679, 1, 0, 262144, 1, 0, 262145, 1, 0, 262146, 1, 0, 262147, 1, 0 )

[node name="Terrain7" type="TileMap" parent="Field2/Terrains"]
visible = false
mode = 1
tile_set = ExtResource( 5 )
cell_size = Vector2( 32, 16 )
centered_textures = true
format = 1
tile_data = PoolIntArray( -262147, 1, 0, -262146, 1, 0, -262145, 1, 0, -327680, 1, 0, -327679, 1, 0, -196612, 1, 0, -196611, 1, 0, -196610, 1, 0, -196609, 1, 0, -262144, 1, 0, -262143, 1, 0, -262142, 1, 0, -131077, 1, 0, -131076, 1, 0, -131075, 1, 0, -131074, 1, 0, -131073, 1, 0, -196608, 1, 0, -196607, 1, 0, -196606, 1, 0, -196605, 1, 0, -65541, 1, 0, -65540, 1, 0, -65539, 1, 0, -65538, 1, 0, -65537, 1, 0, -131072, 1, 0, -131071, 1, 0, -131070, 1, 0, -131069, 1, 0, -131068, 1, 0, -5, 1, 0, -4, 1, 0, -3, 1, 0, -2, 1, 0, -1, 1, 0, -65536, 1, 0, -65535, 1, 0, -65534, 1, 0, -65533, 1, 0, -65532, 1, 0, -65531, 1, 0, 65531, 1, 0, 65532, 1, 0, 65533, 1, 0, 65534, 1, 0, 65535, 1, 0, 0, 1, 0, 1, 1, 0, 2, 1, 0, 3, 1, 0, 4, 1, 0, 5, 1, 0, 131067, 1, 0, 131068, 1, 0, 131069, 1, 0, 131070, 1, 0, 131071, 1, 0, 65536, 1, 0, 65537, 1, 0, 65538, 1, 0, 65539, 1, 0, 65540, 1, 0, 65541, 1, 0, 196604, 1, 0, 196605, 1, 0, 196606, 1, 0, 196607, 1, 0, 131072, 1, 0, 131073, 1, 0, 131074, 1, 0, 131075, 1, 0, 131076, 1, 0, 131077, 1, 0, 262141, 1, 0, 262142, 1, 0, 262143, 1, 0, 196608, 1, 0, 196609, 1, 0, 196610, 1, 0, 196611, 1, 0, 196612, 1, 0, 196613, 1, 0, 327678, 1, 0, 327679, 1, 0, 262144, 1, 0, 262145, 1, 0, 262146, 1, 0, 262147, 1, 0, 262148, 1, 0, 393215, 1, 0, 327680, 1, 0, 327681, 1, 0, 327682, 1, 0, 327683, 1, 0 )

[node name="Terrain" type="TileMap" parent="Field2"]
visible = false
mode = 1
tile_set = ExtResource( 5 )
cell_size = Vector2( 32, 16 )
centered_textures = true
format = 1
tile_data = PoolIntArray( -262147, 1, 0, -262146, 1, 0, -262145, 1, 0, -327680, 1, 0, -327679, 1, 0, -196612, 1, 0, -196611, 1, 0, -196610, 1, 0, -196609, 1, 0, -262144, 1, 0, -262143, 1, 0, -262142, 1, 0, -131077, 1, 0, -131076, 1, 0, -131075, 1, 0, -131074, 1, 0, -131073, 1, 0, -196608, 1, 0, -196607, 1, 0, -196606, 1, 0, -196605, 1, 0, -65541, 1, 0, -65540, 1, 0, -65539, 1, 0, -65538, 1, 0, -65537, 1, 0, -131072, 1, 0, -131071, 1, 0, -131070, 1, 0, -131069, 1, 0, -131068, 1, 0, -5, 1, 0, -4, 1, 0, -3, 1, 0, -2, 1, 0, -1, 1, 0, -65536, 1, 0, -65535, 1, 0, -65534, 1, 0, -65533, 1, 0, -65532, 1, 0, -65531, 1, 0, 65531, 1, 0, 65532, 1, 0, 65533, 1, 0, 65534, 1, 0, 65535, 1, 0, 0, 1, 0, 1, 1, 0, 2, 1, 0, 3, 1, 0, 4, 1, 0, 5, 1, 0, 131067, 1, 0, 131068, 1, 0, 131069, 1, 0, 131070, 1, 0, 131071, 1, 0, 65536, 1, 0, 65537, 1, 0, 65538, 1, 0, 65539, 1, 0, 65540, 1, 0, 65541, 1, 0, 196604, 1, 0, 196605, 1, 0, 196606, 1, 0, 196607, 1, 0, 131072, 1, 0, 131073, 1, 0, 131074, 1, 0, 131075, 1, 0, 131076, 1, 0, 131077, 1, 0, 262141, 1, 0, 262142, 1, 0, 262143, 1, 0, 196608, 1, 0, 196609, 1, 0, 196610, 1, 0, 196611, 1, 0, 196612, 1, 0, 196613, 1, 0, 327678, 1, 0, 327679, 1, 0, 262144, 1, 0, 262145, 1, 0, 262146, 1, 0, 262147, 1, 0, 262148, 1, 0, 393215, 1, 0, 327680, 1, 0, 327681, 1, 0, 327682, 1, 0, 327683, 1, 0 )

[node name="Highlight" type="TileMap" parent="Field2"]
visible = false
modulate = Color( 1, 1, 1, 0.784314 )
mode = 1
tile_set = ExtResource( 5 )
cell_size = Vector2( 32, 16 )
centered_textures = true
format = 1

[node name="Plants" type="TileMap" parent="Field2"]
mode = 1
tile_set = ExtResource( 5 )
cell_size = Vector2( 32, 16 )
centered_textures = true
format = 1
tile_data = PoolIntArray( -65537, 7, 0, -2, 7, 0, -1, 7, 0, -65536, 6, 0, 65535, 6, 0, 0, 6, 0, 1, 5, 0, 65536, 5, 0, 65537, 5, 0, 65538, 2, 0, 131073, 2, 0, 131074, 2, 0 )
